<?xml version="1.0" encoding="UTF-8" standalone="no"?>
<svg width="25px" height="25px" viewBox="0 0 25 25" version="1.1" xmlns="http://www.w3.org/2000/svg" xmlns:xlink="http://www.w3.org/1999/xlink">
    <!-- Generator: sketchtool 3.6.1 (26313) - http://www.bohemiancoding.com/sketch -->
    <title>graphics_inactive_icon</title>
    <desc>Created with sketchtool.</desc>
    <defs></defs>
    <g id="VD_final" stroke="none" stroke-width="1" fill="none" fill-rule="evenodd">
        <g id="E2.1" transform="translate(-44.000000, -278.000000)" fill="#69757E">
            <g id="Group-28" transform="translate(0.000000, 117.000000)">
                <g id="graphics_inactive_icon" transform="translate(44.000000, 161.000000)">
                    <g>
                        <path d="M18.863,10.4483125 C19.8317097,10.4483125 20.6169677,9.66454167 20.6169677,8.69766667 C20.6169677,7.73079167 19.8317097,6.94702083 18.863,6.94702083 C17.8942903,6.94702083 17.1090323,7.73079167 17.1090323,8.69766667 C17.1090323,9.66454167 17.8942903,10.4483125 18.863,10.4483125 L18.863,10.4483125 Z M23.5692258,5.19602083 L23.5692258,19.5829792 C23.5692258,20.2435 23.0327097,20.779 22.3709355,20.779 L3.19829032,20.779 C2.53651613,20.779 2,20.2435 2,19.5829792 L2,5.19602083 C2,4.5355 2.53651613,4 3.19829032,4 L22.3709355,4 C23.0327097,4 23.5692258,4.5355 23.5692258,5.19602083 L23.5692258,5.19602083 Z M21.5374194,6.0283125 L4.03180645,6.0283125 L4.03180645,12.3296458 L7.78458065,8.58397917 C8.2526129,8.11683333 9.01125806,8.11683333 9.47929032,8.58397917 L14.0563548,13.152375 L11.8510323,15.3535208 C11.6782258,15.526 11.6782258,15.8061458 11.8510323,15.978625 C12.0238387,16.1511042 12.3045161,16.1511042 12.4773226,15.978625 L14.6826452,13.7774792 L14.6833548,13.7781875 L16.6069355,11.85825 C17.0749677,11.3911042 17.8336129,11.3911042 18.3016452,11.85825 L21.5377742,15.08825 L21.5377742,6.0283125 L21.5374194,6.0283125 Z"></path>
                    </g>
                </g>
            </g>
        </g>
    </g>
</svg>