<?xml version="1.0" encoding="UTF-8" standalone="no"?>
<svg width="26px" height="26px" viewBox="0 0 26 26" version="1.1" xmlns="http://www.w3.org/2000/svg" xmlns:xlink="http://www.w3.org/1999/xlink">
    <!-- Generator: sketchtool 3.6.1 (26313) - http://www.bohemiancoding.com/sketch -->
    <title>text_inactive_icon</title>
    <desc>Created with sketchtool.</desc>
    <defs></defs>
    <g id="VD_final" stroke="none" stroke-width="1" fill="none" fill-rule="evenodd">
        <g id="E2.1" transform="translate(-44.000000, -339.000000)" fill="#5F6C76">
            <g id="Group-28" transform="translate(0.000000, 117.000000)">
                <g id="noun_138392_cc" transform="translate(44.000000, 222.000000)">
                    <g id="text_inactive_icon" transform="translate(3.000000, 1.000000)">
                        <path d="M19,4.85714286 C18.8823529,4.68571429 18.7352941,4.51428571 18.5882353,4.37142857 L15.4117647,1.28571429 C15.2647059,1.14285714 15.0882353,1 14.9117647,0.885714286 L14.9117647,3.68571429 C14.9117647,4.34285714 15.4705882,4.88571429 16.1470588,4.88571429 L19,4.88571429 L19,4.85714286 Z" id="Shape"></path>
                        <path d="M19.7941176,20.3428571 L19.7941176,7.22857143 L16.1176471,7.22857143 C14.0882353,7.22857143 12.4411765,5.62857143 12.4411765,3.65714286 L12.4411765,0.0857142857 L3.88235294,0.0857142857 C1.85294118,0.0857142857 0.205882353,1.68571429 0.205882353,3.65714286 L0.205882353,20.3142857 C0.205882353,22.2857143 1.85294118,23.8857143 3.88235294,23.8857143 L16.1470588,23.8857143 C18.1470588,23.9142857 19.7941176,22.3142857 19.7941176,20.3428571 L19.7941176,20.3428571 Z M11.2352941,21.5142857 L3.88235294,21.5142857 L3.88235294,19.1428571 L11.2352941,19.1428571 L11.2352941,21.5142857 L11.2352941,21.5142857 Z M16.1176471,16.7714286 L3.88235294,16.7714286 L3.88235294,14.4 L16.1470588,14.4 L16.1470588,16.7714286 L16.1176471,16.7714286 Z M16.1176471,12 L3.88235294,12 L3.88235294,9.62857143 L16.1470588,9.62857143 L16.1470588,12 L16.1176471,12 Z" id="Shape"></path>
                    </g>
                </g>
            </g>
        </g>
    </g>
</svg>